riscvToMergeSortPipelineControleHazard/build/dump.vcd
$date
	Tue Jun 10 10:39:58 2025
$end
$version
	Icarus Verilog
$end
$timescale
	1ps
$end
$scope module tb_top $end
$var reg 1 ! clk $end
$var reg 1 " reset $end
$scope module uut $end
$var wire 1 ! clock $end
$var wire 1 # jumpTaked $end
$var wire 1 " reset $end
$var wire 1 $ ulaImmEX $end
$var wire 1 % ulaImm $end
$var wire 5 & rs2endEX [4:0] $end
$var wire 32 ' rs2MEM [31:0] $end
$var wire 32 ( rs2EX [31:0] $end
$var wire 32 ) rs2 [31:0] $end
$var wire 5 * rs1endEX [4:0] $end
$var wire 32 + rs1EX [31:0] $end
$var wire 32 , rs1 [31:0] $end
$var wire 5 - rdWB [4:0] $end
$var wire 5 . rdMEM [4:0] $end
$var wire 5 / rdEX [4:0] $end
$var wire 32 0 pcID [31:0] $end
$var wire 32 1 pcEX [31:0] $end
$var wire 32 2 pcAdd4MEM [31:0] $end
$var wire 32 3 pcAdd4ID [31:0] $end
$var wire 32 4 pcAdd4EX [31:0] $end
$var wire 32 5 pcAdd4 [31:0] $end
$var wire 32 6 outMemWB [31:0] $end
$var wire 32 7 outMem [31:0] $end
$var wire 32 8 outAlu_jumpAdressWB [31:0] $end
$var wire 32 9 outAluMEM [31:0] $end
$var wire 32 : outAlu [31:0] $end
$var wire 32 ; newPC [31:0] $end
$var wire 32 < muxRs2EX [31:0] $end
$var wire 32 = muxRs2 [31:0] $end
$var wire 32 > muxRs1 [31:0] $end
$var wire 32 ? muxMemToReg [31:0] $end
$var wire 32 @ muxAlu_jumpAdress [31:0] $end
$var wire 32 A muxAluLui [31:0] $end
$var wire 32 B muxAluB [31:0] $end
$var wire 32 C muxAluA [31:0] $end
$var wire 1 D lwWB $end
$var wire 1 E lwMEM $end
$var wire 1 F lwEX $end
$var wire 1 G lw $end
$var wire 1 H luiEX $end
$var wire 1 I lui $end
$var wire 1 J jumpMEM $end
$var wire 1 K jumpEX $end
$var wire 1 L jump $end
$var wire 1 M jalrMEM $end
$var wire 1 N jalrEX $end
$var wire 1 O jalr $end
$var wire 32 P instID [31:0] $end
$var wire 32 Q inst [31:0] $end
$var wire 32 R immWB [31:0] $end
$var wire 32 S immPcMEM [31:0] $end
$var wire 32 T immMEM [31:0] $end
$var wire 32 U immEX [31:0] $end
$var wire 32 V imm [31:0] $end
$var wire 1 W forwardingRs2WB $end
$var wire 1 X forwardingRs2MEM $end
$var wire 1 Y forwardingRs2ID $end
$var wire 1 Z forwardingRs1WB $end
$var wire 1 [ forwardingRs1MEM $end
$var wire 1 \ forwardingRs1ID $end
$var wire 1 ] bltMEM $end
$var wire 1 ^ bltEX $end
$var wire 1 _ blt $end
$var wire 1 ` bgeMEM $end
$var wire 1 a bgeEX $end
$var wire 1 b bge $end
$var wire 1 c auiPcEX $end
$var wire 1 d auiPc $end
$var wire 3 e aluControlEX [2:0] $end
$var wire 3 f aluControl [2:0] $end
$var wire 1 g EscRegWB $end
$var wire 1 h EscRegMEM $end
$var wire 1 i EscRegEX $end
$var wire 1 j EscReg $end
$var wire 1 k EscMemMEM $end
$var wire 1 l EscMemEX $end
$var wire 1 m EscMem $end
$var reg 32 n pc [31:0] $end
$scope module ALU $end
$var wire 32 o inputA [31:0] $end
$var wire 32 p inputB [31:0] $end
$var wire 32 q out [31:0] $end
$var wire 3 r control [2:0] $end
$upscope $end
$scope module DI $end
$var wire 32 s inst [31:0] $end
$var reg 32 t imm [31:0] $end
$upscope $end
$scope module MemDat $end
$var wire 1 ! clock $end
$var wire 32 u value [31:0] $end
$var wire 1 E read_mem $end
$var wire 32 v out_dat [31:0] $end
$var wire 1 k esc_mem $end
$var wire 32 w dst_mem [31:0] $end
$var wire 32 x dado96 [31:0] $end
$var wire 32 y dado92 [31:0] $end
$var wire 32 z dado88 [31:0] $end
$var wire 32 { dado84 [31:0] $end
$var wire 32 | dado80 [31:0] $end
$var wire 32 } dado8 [31:0] $end
$var wire 32 ~ dado76 [31:0] $end
$var wire 32 !" dado72 [31:0] $end
$var wire 32 "" dado68 [31:0] $end
$var wire 32 #" dado64 [31:0] $end
$var wire 32 $" dado60 [31:0] $end
$var wire 32 %" dado56 [31:0] $end
$var wire 32 &" dado52 [31:0] $end
$var wire 32 '" dado48 [31:0] $end
$var wire 32 (" dado44 [31:0] $end
$var wire 32 )" dado40 [31:0] $end
$var wire 32 *" dado4 [31:0] $end
$var wire 32 +" dado36 [31:0] $end
$var wire 32 ," dado32 [31:0] $end
$var wire 32 -" dado28 [31:0] $end
$var wire 32 ." dado252 [31:0] $end
$var wire 32 /" dado248 [31:0] $end
$var wire 32 0" dado244 [31:0] $end
$var wire 32 1" dado240 [31:0] $end
$var wire 32 2" dado24 [31:0] $end
$var wire 32 3" dado236 [31:0] $end
$var wire 32 4" dado232 [31:0] $end
$var wire 32 5" dado228 [31:0] $end
$var wire 32 6" dado224 [31:0] $end
$var wire 32 7" dado220 [31:0] $end
$var wire 32 8" dado216 [31:0] $end
$var wire 32 9" dado212 [31:0] $end
$var wire 32 :" dado208 [31:0] $end
$var wire 32 ;" dado204 [31:0] $end
$var wire 32 <" dado200 [31:0] $end
$var wire 32 =" dado20 [31:0] $end
$var wire 32 >" dado196 [31:0] $end
$var wire 32 ?" dado192 [31:0] $end
$var wire 32 @" dado188 [31:0] $end
$var wire 32 A" dado184 [31:0] $end
$var wire 32 B" dado180 [31:0] $end
$var wire 32 C" dado176 [31:0] $end
$var wire 32 D" dado172 [31:0] $end
$var wire 32 E" dado168 [31:0] $end
$var wire 32 F" dado164 [31:0] $end
$var wire 32 G" dado160 [31:0] $end
$var wire 32 H" dado16 [31:0] $end
$var wire 32 I" dado156 [31:0] $end
$var wire 32 J" dado152 [31:0] $end
$var wire 32 K" dado148 [31:0] $end
$var wire 32 L" dado144 [31:0] $end
$var wire 32 M" dado140 [31:0] $end
$var wire 32 N" dado136 [31:0] $end
$var wire 32 O" dado132 [31:0] $end
$var wire 32 P" dado128 [31:0] $end
$var wire 32 Q" dado124 [31:0] $end
$var wire 32 R" dado120 [31:0] $end
$var wire 32 S" dado12 [31:0] $end
$var wire 32 T" dado116 [31:0] $end
$var wire 32 U" dado112 [31:0] $end
$var wire 32 V" dado108 [31:0] $end
$var wire 32 W" dado104 [31:0] $end
$var wire 32 X" dado100 [31:0] $end
$var wire 32 Y" dado0 [31:0] $end
$upscope $end
$scope module MemInst $end
$var wire 1 ! clock $end
$var wire 32 Z" pc [31:0] $end
$var wire 1 # stall $end
$var wire 32 [" out_inst [31:0] $end
$upscope $end
$scope module Regs $end
$var wire 1 ! clock $end
$var wire 1 " reset $end
$var wire 5 \" rs1 [4:0] $end
$var wire 5 ]" rs2 [4:0] $end
$var wire 32 ^" writeData [31:0] $end
$var wire 1 g regWrite $end
$var wire 5 _" rd [4:0] $end
$var wire 32 `" outReg2 [31:0] $end
$var wire 32 a" outReg1 [31:0] $end
$var reg 32 b" reg10_a0 [31:0] $end
$var reg 32 c" reg11_a1 [31:0] $end
$var reg 32 d" reg12_a2 [31:0] $end
$var reg 32 e" reg13_a3 [31:0] $end
$var reg 32 f" reg14_a4 [31:0] $end
$var reg 32 g" reg15_a5 [31:0] $end
$var reg 32 h" reg16_a6 [31:0] $end
$var reg 32 i" reg17_a7 [31:0] $end
$var reg 32 j" reg18_s2 [31:0] $end
$var reg 32 k" reg19_s3 [31:0] $end
$var reg 32 l" reg1_ra [31:0] $end
$var reg 32 m" reg20_s4 [31:0] $end
$var reg 32 n" reg21_s5 [31:0] $end
$var reg 32 o" reg22_s6 [31:0] $end
$var reg 32 p" reg23_s7 [31:0] $end
$var reg 32 q" reg24_s8 [31:0] $end
$var reg 32 r" reg25_s9 [31:0] $end
$var reg 32 s" reg26_s10 [31:0] $end
$var reg 32 t" reg27_s11 [31:0] $end
$var reg 32 u" reg28_t3 [31:0] $end
$var reg 32 v" reg29_t4 [31:0] $end
$var reg 32 w" reg2_sp [31:0] $end
$var reg 32 x" reg30_t5 [31:0] $end
$var reg 32 y" reg31_t6 [31:0] $end
$var reg 32 z" reg3_gp [31:0] $end
$var reg 32 {" reg4_tp [31:0] $end
$var reg 32 |" reg5_t0 [31:0] $end
$var reg 32 }" reg6_t1 [31:0] $end
$var reg 32 ~" reg7_t2 [31:0] $end
$var reg 32 !# reg8_s0 [31:0] $end
$var reg 32 "# reg9_s1 [31:0] $end
$upscope $end
$scope module UC $end
$var wire 32 ## inst [31:0] $end
$var reg 1 m EscMem $end
$var reg 1 j EscReg $end
$var reg 3 $# aluControl [2:0] $end
$var reg 1 d auiPc $end
$var reg 1 b bge $end
$var reg 1 _ blt $end
$var reg 1 O jalr $end
$var reg 1 L jump $end
$var reg 1 I lui $end
$var reg 1 G lw $end
$var reg 1 % ulaImm $end
$upscope $end
$scope module ex_mem $end
$var wire 1 ! clk $end
$var wire 1 # flush $end
$var wire 32 %# immPc [31:0] $end
$var wire 32 &# outAlu [31:0] $end
$var wire 1 " reset $end
$var wire 32 '# rs2 [31:0] $end
$var wire 5 (# rd [4:0] $end
$var wire 32 )# pcAdd4 [31:0] $end
$var wire 1 F lw $end
$var wire 1 K jump $end
$var wire 1 N jalr $end
$var wire 32 *# imm [31:0] $end
$var wire 1 ^ blt $end
$var wire 1 a bge $end
$var wire 1 i EscReg $end
$var wire 1 l EscMem $end
$var reg 1 k EscMemOut $end
$var reg 1 h EscRegOut $end
$var reg 1 ` bgeOut $end
$var reg 1 ] bltOut $end
$var reg 32 +# immOut [31:0] $end
$var reg 32 ,# immPcOut [31:0] $end
$var reg 1 M jalrOut $end
$var reg 1 J jumpOut $end
$var reg 1 E lwOut $end
$var reg 32 -# outAluOut [31:0] $end
$var reg 32 .# pcAdd4Out [31:0] $end
$var reg 5 /# rdOut [4:0] $end
$var reg 32 0# rs2Out [31:0] $end
$upscope $end
$scope module forwarding $end
$var wire 1 h EscRegMEM $end
$var wire 1 E lw $end
$var wire 5 1# rdMEM [4:0] $end
$var wire 5 2# rs1ID [4:0] $end
$var wire 5 3# rs2ID [4:0] $end
$var wire 5 4# rs2 [4:0] $end
$var wire 5 5# rs1 [4:0] $end
$var wire 5 6# rdWB [4:0] $end
$var wire 1 $ imm $end
$var wire 1 W forwardingRs2WB $end
$var wire 1 X forwardingRs2MEM $end
$var wire 1 Y forwardingRs2ID $end
$var wire 1 Z forwardingRs1WB $end
$var wire 1 [ forwardingRs1MEM $end
$var wire 1 \ forwardingRs1ID $end
$var wire 1 g EscRegWB $end
$upscope $end
$scope module id_ex $end
$var wire 1 m EscMem $end
$var wire 1 j EscReg $end
$var wire 3 7# aluControl [2:0] $end
$var wire 1 d auiPc $end
$var wire 1 b bge $end
$var wire 1 _ blt $end
$var wire 1 ! clk $end
$var wire 1 # flush $end
$var wire 32 8# imm [31:0] $end
$var wire 1 O jalr $end
$var wire 1 L jump $end
$var wire 1 I lui $end
$var wire 1 G lw $end
$var wire 5 9# rd [4:0] $end
$var wire 1 " reset $end
$var wire 32 :# rs1 [31:0] $end
$var wire 5 ;# rs1end [4:0] $end
$var wire 32 <# rs2 [31:0] $end
$var wire 5 =# rs2end [4:0] $end
$var wire 1 ># stall $end
$var wire 1 % ulaImm $end
$var wire 32 ?# pcAdd4 [31:0] $end
$var wire 32 @# pc [31:0] $end
$var reg 1 l EscMemOut $end
$var reg 1 i EscRegOut $end
$var reg 3 A# aluControlOut [2:0] $end
$var reg 1 c auiPcOut $end
$var reg 1 a bgeOut $end
$var reg 1 ^ bltOut $end
$var reg 32 B# immOut [31:0] $end
$var reg 1 N jalrOut $end
$var reg 1 K jumpOut $end
$var reg 1 H luiOut $end
$var reg 1 F lwOut $end
$var reg 32 C# pcAdd4Out [31:0] $end
$var reg 32 D# pcOut [31:0] $end
$var reg 5 E# rdOut [4:0] $end
$var reg 32 F# rs1Out [31:0] $end
$var reg 5 G# rs1endOut [4:0] $end
$var reg 32 H# rs2Out [31:0] $end
$var reg 5 I# rs2endOut [4:0] $end
$var reg 1 $ ulaImmOut $end
$upscope $end
$scope module if_id $end
$var wire 1 ! clk $end
$var wire 1 # flush $end
$var wire 32 J# inst [31:0] $end
$var wire 32 K# pc [31:0] $end
$var wire 32 L# pcAdd4 [31:0] $end
$var wire 1 " reset $end
$var wire 1 M# stall $end
$var reg 32 N# instOut [31:0] $end
$var reg 32 O# pcAdd4Out [31:0] $end
$var reg 32 P# pcOut [31:0] $end
$upscope $end
$scope module mem_wb $end
$var wire 1 h EscReg $end
$var wire 1 ! clk $end
$var wire 32 Q# imm [31:0] $end
$var wire 1 E lw $end
$var wire 32 R# outAlu_jumpAdress [31:0] $end
$var wire 32 S# outMem [31:0] $end
$var wire 5 T# rd [4:0] $end
$var wire 1 " reset $end
$var reg 1 g EscRegOut $end
$var reg 32 U# immOut [31:0] $end
$var reg 1 D lwOut $end
$var reg 32 V# outAlu_jumpAdressOut [31:0] $end
$var reg 32 W# outMemOut [31:0] $end
$var reg 5 X# rdOut [4:0] $end
$upscope $end
$upscope $end
$upscope $end
$enddefinitions $end
$comment Show the parameter values. $end
$dumpall
$end
#0
$dumpvars
b0 X#
b0 W#
b0 V#
b0 U#
b0 T#
b100 S#
b0 R#
b0 Q#
b0 P#
b0 O#
b0 N#
0M#
b100 L#
b0 K#
b10010111 J#
b0 I#
b0 H#
b0 G#
b0 F#
b0 E#
b0 D#
b0 C#
b0 B#
b0 A#
b0 @#
b0 ?#
0>#
b0 =#
b0 <#
b0 ;#
b0 :#
b0 9#
b0 8#
b0 7#
b0 6#
b0 5#
b0 4#
b0 3#
b0 2#
b0 1#
b0 0#
b0 /#
b0 .#
b0 -#
b0 ,#
b0 +#
b0 *#
b0 )#
b0 (#
b0 '#
b0 &#
b0 %#
b0 $#
b0 ##
b0 "#
b0 !#
b0 ~"
b0 }"
b0 |"
b0 {"
b0 z"
b0 y"
b0 x"
b100000000 w"
b0 v"
b0 u"
b0 t"
b0 s"
b0 r"
b0 q"
b0 p"
b0 o"
b0 n"
b0 m"
b0 l"
b0 k"
b0 j"
b0 i"
b0 h"
b0 g"
b0 f"
b0 e"
b0 d"
b0 c"
b0 b"
b0 a"
b0 `"
b0 _"
b0 ^"
b0 ]"
b0 \"
b10010111 ["
b0 Z"
b100 Y"
b0 X"
b0 W"
b0 V"
b0 U"
b0 T"
b1 S"
b0 R"
b0 Q"
b0 P"
b0 O"
b0 N"
b0 M"
b0 L"
b0 K"
b0 J"
b0 I"
b10000 H"
b0 G"
b0 F"
b0 E"
b0 D"
b0 C"
b0 B"
b0 A"
b0 @"
b0 ?"
b0 >"
b1111 ="
b0 <"
b0 ;"
b0 :"
b0 9"
b0 8"
b0 7"
b0 6"
b0 5"
b0 4"
b0 3"
b1110 2"
b0 1"
b0 0"
b0 /"
b0 ."
b1101 -"
b1100 ,"
b1011 +"
b11 *"
b1010 )"
b1001 ("
b1000 '"
b111 &"
b110 %"
b101 $"
b100 #"
b11 ""
b10 !"
b1 ~
b10 }
b0 |
b0 {
b0 z
b0 y
b0 x
b0 w
b100 v
b0 u
b0 t
b0 s
b0 r
b0 q
b0 p
b0 o
b0 n
0m
0l
0k
1j
1i
1h
1g
b0 f
b0 e
0d
0c
0b
0a
0`
0_
0^
0]
0\
0[
0Z
0Y
0X
0W
b0 V
b0 U
b0 T
b0 S
b0 R
b10010111 Q
b0 P
0O
0N
0M
0L
0K
0J
0I
0H
0G
0F
0E
0D
b0 C
b0 B
b0 A
b0 @
b0 ?
b0 >
b0 =
b0 <
b100 ;
b0 :
b0 9
b0 8
b100 7
b0 6
b100 5
b0 4
b0 3
b0 2
b0 1
b0 0
b0 /
b0 .
b0 -
b0 ,
b0 +
b0 *
b0 )
b0 (
b0 '
b0 &
0%
0$
0#
1"
0!
$end
#5000
1!
#10000
0!
#15000
1!
#20000
0!
0"
#25000
b1000 ;
b1000010000000001000000011100111 Q
b1000010000000001000000011100111 ["
b1000010000000001000000011100111 J#
b1 9#
1d
0j
b1000 5
b1000 L#
b100 n
b100 Z"
b100 K#
b100 6
b100 W#
b10010111 P
b10010111 s
b10010111 ##
b10010111 N#
b100 3
b100 ?#
b100 O#
1!
#30000
0!
#35000
b1100 ;
b11111010000000010000000100010011 Q
b11111010000000010000000100010011 ["
b11111010000000010000000100010011 J#
b1 2#
b1 \"
b1 ;#
b10000100000 V
b10000100000 t
b10000100000 8#
1O
0d
b1100 5
b1100 L#
b1000 n
b1000 Z"
b1000 K#
1c
0i
b100 4
b100 )#
b100 C#
b1 /
b1 (#
b1 E#
b1000010000000001000000011100111 P
b1000010000000001000000011100111 s
b1000010000000001000000011100111 ##
b1000010000000001000000011100111 N#
b1000 3
b1000 ?#
b1000 O#
b100 0
b100 @#
b100 P#
1!
#40000
0!
#45000
b100000000 >
b100000000 :#
b10000100000 A
b10000100000 &#
b100000000 ,
b100000000 a"
1[
b10000100000 :
b10000100000 q
b10000 ;
b100100000010010111000100011 Q
b100100000010010111000100011 ["
b100100000010010111000100011 J#
b10000100000 B
b10000100000 p
b10 2#
b10 \"
b10 ;#
b10 9#
0O
b11111111111111111111111110100000 V
b11111111111111111111111110100000 t
b11111111111111111111111110100000 8#
b10000 5
b10000 L#
b1100 n
b1100 Z"
b1100 K#
0h
b100 2
b100 .#
b1 .
b1 /#
b1 1#
b1 T#
b1 *
b1 5#
b1 G#
1N
0c
b1000 4
b1000 )#
b1000 C#
b100 1
b100 D#
b10000100100 %#
b10000100000 U
b10000100000 *#
b10000100000 B#
b11111010000000010000000100010011 P
b11111010000000010000000100010011 s
b11111010000000010000000100010011 ##
b11111010000000010000000100010011 N#
b1100 3
b1100 ?#
b1100 O#
b1000 0
b1000 @#
b1000 P#
1!
#50000
0!
#55000
1i
b0 A
b0 &#
1#
b0 C
b0 o
0[
b0 :
b0 q
b1000 @
b1000 R#
b10000100000 ;
b0 Q
b0 ["
b0 J#
b0 B
b0 p
b1000 3#
b1000 ]"
b1000 =#
b11100 9#
b1011100 V
b1011100 t
b1011100 8#
1m
1j
b10000100000 T
b10000100000 +#
b10000100000 Q#
1M
b0 7
b0 v
b0 S#
b10000100000 9
b10000100000 w
b10000100000 -#
b1000 2
b1000 .#
b10000100100 S
b10000100100 ,#
0g
b1 -
b1 _"
b1 6#
b1 X#
b10100 5
b10100 L#
b10000 n
b10000 Z"
b10000 K#
b0 *
b0 5#
b0 G#
0N
b0 4
b0 )#
b0 C#
b0 1
b0 D#
b0 /
b0 (#
b0 E#
b0 %#
b0 U
b0 *#
b0 B#
b0 +
b0 F#
b100100000010010111000100011 P
b100100000010010111000100011 s
b100100000010010111000100011 ##
b100100000010010111000100011 N#
b10000 3
b10000 ?#
b10000 O#
b1100 0
b1100 @#
b1100 P#
1!
#60000
0!
#65000
b11111110000000010000000100010011 Q
b11111110000000010000000100010011 ["
b11111110000000010000000100010011 J#
b0 >
b0 :#
b10000100100 ;
0#
b0 ,
b0 a"
b1000 ?
b1000 ^"
b0 @
b0 R#
b0 3#
b0 2#
b0 ]"
b0 \"
b0 =#
b0 ;#
b0 9#
0m
1j
b0 V
b0 t
b0 8#
b10000100100 5
b10000100100 L#
b10000100000 n
b10000100000 Z"
b10000100000 K#
b10000100000 R
b10000100000 U#
b0 6
b0 W#
b1000 8
b1000 V#
b0 T
b0 +#
b0 Q#
0M
1h
b100 7
b100 v
b100 S#
b0 9
b0 w
b0 -#
b0 2
b0 .#
b0 .
b0 /#
b0 1#
b0 T#
b0 S
b0 ,#
b0 P
b0 s
b0 ##
b0 N#
b0 3
b0 ?#
b0 O#
b0 0
b0 @#
b0 P#
1!
#70000
0!
#75000
b100000000 >
b100000000 :#
b100000000 ,
b100000000 a"
b0 ?
b0 ^"
b10000101000 ;
b100010010111000100011 Q
b100010010111000100011 ["
b100010010111000100011 J#
b10 2#
b10 \"
b10 ;#
b10 9#
b11111111111111111111111111100000 V
b11111111111111111111111111100000 t
b11111111111111111111111111100000 8#
0j
b0 R
b0 U#
1g
b0 -
b0 _"
b0 6#
b0 X#
b100 6
b100 W#
b0 8
b0 V#
b1000 l"
b10000101000 5
b10000101000 L#
b10000100100 n
b10000100100 Z"
b10000100100 K#
b11111110000000010000000100010011 P
b11111110000000010000000100010011 s
b11111110000000010000000100010011 ##
b11111110000000010000000100010011 N#
b10000100100 3
b10000100100 ?#
b10000100100 O#
b10000100000 0
b10000100000 @#
b10000100000 P#
1!
#80000
0!
#85000
b11100000 A
b11100000 &#
b100000000 C
b100000000 o
b1000 =
b1000 <#
b11100000 :
b11100000 q
b1000 )
b1000 `"
b10000101100 ;
b100000010010110000100011 Q
b100000010010110000100011 ["
b100000010010110000100011 J#
b11111111111111111111111111100000 B
b11111111111111111111111111100000 p
b1 3#
b1 ]"
b1 =#
b11100 9#
1m
1j
b11100 V
b11100 t
b11100 8#
b10000101100 5
b10000101100 L#
b10000101000 n
b10000101000 Z"
b10000101000 K#
b10 *
b10 5#
b10 G#
0i
b10000100100 4
b10000100100 )#
b10000100100 C#
b10000100000 1
b10000100000 D#
b10 /
b10 (#
b10 E#
b10000000000 %#
b11111111111111111111111111100000 U
b11111111111111111111111111100000 *#
b11111111111111111111111111100000 B#
b100000000 +
b100000000 F#
b100010010111000100011 P
b100010010111000100011 s
b100010010111000100011 ##
b100010010111000100011 N#
b10000101000 3
b10000101000 ?#
b10000101000 O#
b10000100100 0
b10000100100 @#
b10000100100 P#
1!
#90000
0!
#95000
b0 =
b0 <#
b11100000 C
b11100000 o
b11111100 A
b11111100 &#
b0 )
b0 `"
1[
b11111100 :
b11111100 q
b1000 <
b1000 '#
b11100000 @
b11100000 R#
b10000110000 ;
b10000000010000010000010011 Q
b10000000010000010000010011 ["
b10000000010000010000010011 J#
b11100 B
b11100 p
b1000 3#
b1000 ]"
b1000 =#
b11000 9#
b11000 V
b11000 t
b11000 8#
1m
1j
b11111111111111111111111111100000 T
b11111111111111111111111111100000 +#
b11111111111111111111111111100000 Q#
0h
b0 7
b0 v
b0 S#
b11100000 9
b11100000 w
b11100000 -#
b10000100100 2
b10000100100 .#
b10 .
b10 /#
b10 1#
b10 T#
b10000000000 S
b10000000000 ,#
b10000110000 5
b10000110000 L#
b10000101100 n
b10000101100 Z"
b10000101100 K#
b1 &
b1 4#
b1 I#
1l
1i
b10000101000 4
b10000101000 )#
b10000101000 C#
b10000100100 1
b10000100100 D#
b11100 /
b11100 (#
b11100 E#
b10001000000 %#
b11100 U
b11100 *#
b11100 B#
b1000 (
b1000 H#
b100000010010110000100011 P
b100000010010110000100011 s
b100000010010110000100011 ##
b100000010010110000100011 N#
b10000101100 3
b10000101100 ?#
b10000101100 O#
b10000101000 0
b10000101000 @#
b10000101000 P#
1!
#100000
0!
#105000
b11100000 >
b11100000 :#
b11111000 A
b11111000 &#
1Z
1\
b11100000 C
b11100000 o
0[
b11111000 :
b11111000 q
b0 <
b0 '#
b10000110100 ;
b11110110111 Q
b11110110111 ["
b11110110111 J#
b11100000 ?
b11100000 ^"
b11111100 @
b11111100 R#
b11000 B
b11000 p
b0 3#
b0 ]"
b0 =#
b1000 9#
0m
0j
b100000 V
b100000 t
b100000 8#
b10000110100 5
b10000110100 L#
b10000110000 n
b10000110000 Z"
b10000110000 K#
b11111111111111111111111111100000 R
b11111111111111111111111111100000 U#
0g
b10 -
b10 _"
b10 6#
b10 X#
b0 6
b0 W#
b11100000 8
b11100000 V#
b11100 T
b11100 +#
b11100 Q#
1k
1h
b11111100 9
b11111100 w
b11111100 -#
b10000101000 2
b10000101000 .#
b11100 .
b11100 /#
b11100 1#
b11100 T#
b10001000000 S
b10001000000 ,#
b1000 '
b1000 u
b1000 0#
b1000 &
b1000 4#
b1000 I#
b10000101100 4
b10000101100 )#
b10000101100 C#
b10000101000 1
b10000101000 D#
b11000 /
b11000 (#
b11000 E#
b10001000000 %#
b11000 U
b11000 *#
b11000 B#
b0 (
b0 H#
b10000000010000010000010011 P
b10000000010000010000010011 s
b10000000010000010000010011 ##
b10000000010000010000010011 N#
b10000110000 3
b10000110000 ?#
b10000110000 O#
b10000101100 0
b10000101100 @#
b10000101100 P#
1!
#110000
0!
#115000
b11100000 C
b11100000 o
b100000000 A
b100000000 &#
0Z
0\
b0 >
b0 :#
b100000000 :
b100000000 q
b0 ,
b0 a"
b11111000 @
b11111000 R#
b11111100 ?
b11111100 ^"
b10000111000 ;
b1111000011110010011 Q
b1111000011110010011 ["
b1111000011110010011 J#
b100000 B
b100000 p
b0 2#
b0 \"
b0 ;#
b1111 9#
b0 V
b0 t
b0 8#
1I
b1000 ."
b11000 T
b11000 +#
b11000 Q#
b11111000 9
b11111000 w
b11111000 -#
b10000101100 2
b10000101100 .#
b11000 .
b11000 /#
b11000 1#
b11000 T#
b0 '
b0 u
b0 0#
b11100 R
b11100 U#
1g
b11100 -
b11100 _"
b11100 6#
b11100 X#
b11111100 8
b11111100 V#
b11100000 w"
b10000111000 5
b10000111000 L#
b10000110100 n
b10000110100 Z"
b10000110100 K#
b0 &
b0 4#
b0 I#
0l
0i
b10000110000 4
b10000110000 )#
b10000110000 C#
b10000101100 1
b10000101100 D#
b1000 /
b1000 (#
b1000 E#
b10001001100 %#
b100000 U
b100000 *#
b100000 B#
b11100000 +
b11100000 F#
b11110110111 P
b11110110111 s
b11110110111 ##
b11110110111 N#
b10000110100 3
b10000110100 ?#
b10000110100 O#
b10000110000 0
b10000110000 @#
b10000110000 P#
1!
#120000
0!
#125000
b0 C
b0 o
b0 :
b0 q
b10000111100 ;
b1111010011000000011 Q
b1111010011000000011 ["
b1111010011000000011 J#
b11111000 ?
b11111000 ^"
b100000000 @
b100000000 R#
b0 A
b0 &#
b0 B
b0 p
b1111 2#
b1111 \"
b1111 ;#
0I
b10000111100 5
b10000111100 L#
b10000111000 n
b10000111000 Z"
b10000111000 K#
b11000 R
b11000 U#
b11000 -
b11000 _"
b11000 6#
b11000 X#
b11111000 8
b11111000 V#
b100000 T
b100000 +#
b100000 Q#
0k
0h
b100000000 9
b100000000 w
b100000000 -#
b10000110000 2
b10000110000 .#
b1000 .
b1000 /#
b1000 1#
b1000 T#
b10001001100 S
b10001001100 ,#
b0 *
b0 5#
b0 G#
1H
b10000110100 4
b10000110100 )#
b10000110100 C#
b10000110000 1
b10000110000 D#
b1111 /
b1111 (#
b1111 E#
b10000110000 %#
b0 U
b0 *#
b0 B#
b0 +
b0 F#
b1111000011110010011 P
b1111000011110010011 s
b1111000011110010011 ##
b1111000011110010011 N#
b10000111000 3
b10000111000 ?#
b10000111000 O#
b10000110100 0
b10000110100 @#
b10000110100 P#
1!
#130000
0!
#135000
1[
b0 @
b0 R#
b100000000 ?
b100000000 ^"
b10001000000 ;
b10001111010011010000011 Q
b10001111010011010000011 ["
b10001111010011010000011 J#
b1100 9#
1G
b0 T
b0 +#
b0 Q#
b100 7
b100 v
b100 S#
b0 9
b0 w
b0 -#
b10000110100 2
b10000110100 .#
b1111 .
b1111 /#
b1111 1#
b1111 T#
b10000110000 S
b10000110000 ,#
b100000 R
b100000 U#
0g
b1000 -
b1000 _"
b1000 6#
b1000 X#
b100000000 8
b100000000 V#
b10001000000 5
b10001000000 L#
b10000111100 n
b10000111100 Z"
b10000111100 K#
b1111 *
b1111 5#
b1111 G#
0H
b10000111000 4
b10000111000 )#
b10000111000 C#
b10000110100 %#
b10000110100 1
b10000110100 D#
b1111010011000000011 P
b1111010011000000011 s
b1111010011000000011 ##
b1111010011000000011 N#
b10000111100 3
b10000111100 ?#
b10000111100 O#
b10000111000 0
b10000111000 @#
b10000111000 P#
1!
#140000
0!
#145000
1Z
1\
b10001000100 ;
b100001111010011100000011 Q
b100001111010011100000011 ["
b100001111010011100000011 J#
b0 ?
b0 ^"
b100 3#
b100 ]"
b100 =#
b1101 9#
1G
b100 V
b100 t
b100 8#
b10001000100 5
b10001000100 L#
b10001000000 n
b10001000000 Z"
b10001000000 K#
b100000000 !#
b0 R
b0 U#
b1111 -
b1111 _"
b1111 6#
b1111 X#
b100 6
b100 W#
b0 8
b0 V#
b10000111000 2
b10000111000 .#
b10000110100 S
b10000110100 ,#
1F
b10000111100 4
b10000111100 )#
b10000111100 C#
b10000111000 %#
b10000111000 1
b10000111000 D#
b1100 /
b1100 (#
b1100 E#
b10001111010011010000011 P
b10001111010011010000011 s
b10001111010011010000011 ##
b10001111010011010000011 N#
b10001000000 3
b10001000000 ?#
b10001000000 O#
b10000111100 0
b10000111100 @#
b10000111100 P#
1!
#150000
0!
#155000
b100000000 =
b100000000 <#
b100000000 )
b100000000 `"
b100 A
b100 &#
0[
b100 :
b100 q
b10001001000 ;
b110001111010011110000011 Q
b110001111010011110000011 ["
b110001111010011110000011 J#
b100 B
b100 p
b1000 3#
b1000 ]"
b1000 =#
b1110 9#
b1000 V
b1000 t
b1000 8#
1G
1E
b10000111100 2
b10000111100 .#
b1100 .
b1100 /#
b1100 1#
b1100 T#
b10000111000 S
b10000111000 ,#
b10001001000 5
b10001001000 L#
b10001000100 n
b10001000100 Z"
b10001000100 K#
b100 &
b100 4#
b100 I#
b10001000000 4
b10001000000 )#
b10001000000 C#
b10000111100 1
b10000111100 D#
b1101 /
b1101 (#
b1101 E#
b10001000000 %#
b100 U
b100 *#
b100 B#
b100001111010011100000011 P
b100001111010011100000011 s
b100001111010011100000011 ##
b100001111010011100000011 N#
b10001000100 3
b10001000100 ?#
b10001000100 O#
b10001000000 0
b10001000000 @#
b10001000000 P#
1!
#160000
0!
